{
  "agreements": [
    {
      "id": 100,
      "code": "eeee",
      "client": "Hanička Zagorová",
      "dateFrom": "2017-10-01T10:00:00.000Z",
      "dateTo": "2017-09-14T10:00:00.000Z",
      "daysCount": 10
    },
    {
      "id": 101,
      "code": "100001",
      "client": "Maruška Rottrová",
      "dateFrom": "2017-09-12T10:00:00.000Z",
      "dateTo": "2017-09-12T10:00:00.000Z"
    },
    {
      "id": 102,
      "code": "100001",
      "client": "Kája Gottůj",
      "dateFrom": "2017-09-12T10:00:00.000Z",
      "dateTo": "2017-09-12T10:00:00.000Z"
    },
    {
      "id": 103,
      "code": "100001",
      "client": "Walda Matuška",
      "dateFrom": "2017-09-14T10:00:00.000Z",
      "dateTo": "2017-09-12T10:00:00.000Z"
    },
    {
      "id": 104,
      "code": "100001",
      "client": "Helenka Vondráčková",
      "dateFrom": "2017-09-12T10:00:00.000Z",
      "dateTo": "2017-09-12T10:00:00.000Z"
    },
    {
      "id": 105,
      "code": "100001",
      "client": "Jožko Kukuricůdus",
      "dateFrom": "2017-09-12T10:00:00.000Z",
      "dateTo": "2017-09-12T10:00:00.000Z"
    },
    {
      "id": 107,
      "code": "100001",
      "client": "Martin Lux",
      "dateFrom": "2017-09-12T10:00:00.000Z",
      "dateTo": "2017-09-12T10:00:00.000Z"
    }
  ],
  "transactions": [
    {
      "id": "602851d0-3084-4353-9806-fb4e9c9741ad",
      "agreementID": "100",
      "value": "10"
    },
    {
      "id": "7aa9e501-9d6a-4e98-8895-93138840d7eb",
      "agreementID": "100",
      "value": "10"
    },
    {
      "agreementID": "100",
      "id": "94247f2e-89b4-4b9a-94fe-ab0b6776cc15",
      "value": "100"
    },
    {
      "id": "d11b72be-78da-48fc-8090-99b565ca4965",
      "agreementID": "105",
      "value": "100"
    },
    {
      "id": "5b72308f-16dc-4f2c-836e-e3960e5d68ab",
      "agreementID": "100",
      "value": "20"
    }
  ]
}